<?xml version="1.0" encoding="UTF-8"?>
<session version="1.0">
<refactoring comment="Rename Java project &apos;HelloPlumWebServiceDataBase&apos; to &apos;HelloPlumDataBase&apos;&#x0D;&#x0A;- Original element: &apos;HelloPlumWebServiceDataBase&apos;&#x0D;&#x0A;- Renamed element: &apos;HelloPlumWebServiceDataBase&apos;&#x0D;&#x0A;- Update references to refactored element" description="Rename Java project &apos;HelloPlumWebServiceDataBase&apos;" flags="7" id="org.eclipse.jdt.ui.rename.java.project" input="=HelloPlumWebServiceDataBase" name="HelloPlumDataBase" references="true" stamp="1415112037929" version="1.0"/>
</session>