<?xml version="1.0" encoding="UTF-8"?>
<session version="1.0">
<refactoring comment="Rename package &apos;formation.exemple&apos; to &apos;formation.exemple.hellobutton&apos;&#x0D;&#x0A;- Original project: &apos;HelloButton&apos;&#x0D;&#x0A;- Original element: &apos;HelloButton/src/formation.exemple&apos;&#x0D;&#x0A;- Renamed element: &apos;HelloButton/src/formation.exemple.hellobutton&apos;&#x0D;&#x0A;- Update references to refactored element&#x0D;&#x0A;- Update textual occurrences in comments and strings&#x0D;&#x0A;- Rename subpackages of the package" description="Rename package &apos;formation.exemple&apos;" flags="589830" hierarchical="true" id="org.eclipse.jdt.ui.rename.package" input="/src&lt;formation.exemple" name="formation.exemple.hellobutton" qualified="false" references="true" stamp="1445957324798" textual="false" version="1.0"/>
</session>