<?xml version="1.0" encoding="UTF-8"?>
<session version="1.0">
<refactoring accessors="true" comment="Delete element from project &apos;Camera1&apos;&#x0D;&#x0A;- Original project: &apos;Camera1&apos;&#x0D;&#x0A;- Original element: &apos;proto.camera.camera1.SurfaceHolder.java&apos;" description="Delete element" element1="/src&lt;proto.camera.camera1{SurfaceHolder.java" elements="1" flags="589830" id="org.eclipse.jdt.ui.delete" resources="0" stamp="1408018743625" subPackages="false" version="1.0"/>
</session>